…
``` r
post_df1 %>% 
  dplyr::select(creator_username,createdAt,impressions,upvotes,body)
#> # A tibble: 83 x 5
#>    creator_username createdAt     impressions upvotes body                      
#>    <chr>            <chr>               <dbl>   <dbl> <chr>                     
#>  1 Grenell          2021-01-09T0~      241000    6500 "Start following people -~
#>  2 Grenell          2021-01-09T0~      127000    1700 "Start following people -~
#>  3 Grenell          2021-01-07T0~      298000    2300 "I’ll be on with @SeanHan~
#>  4 Grenell          2021-01-03T1~      333000    2500 ""                        
#>  5 Grenell          2021-01-03T1~      922000    9200 ""                        
#>  6 Grenell          2021-01-03T1~      905000    9200 ""                        
#>  7 Grenell          2021-01-01T2~      333000    2500 "New year means opening u~
#>  8 Grenell          2020-12-31T1~      147000    1500 ""                        
#>  9 Grenell          2020-12-26T1~      410000    3900 ""                        
#> 10 Grenell          2020-12-25T1~      410000    3900 "Today I’m thinking of th~
#> # ... with 73 more rows
```
…
``` r
hashtag_posts_df1 %>% 
  head(50) %>% 
  dplyr::select(creator_username,createdAt,impressions,upvotes,body)
#> # A tibble: 50 x 5
#>    creator_username  createdAt    impressions upvotes body                      
#>    <chr>             <chr>              <dbl>   <dbl> <chr>                     
#>  1 Bbobby            2021-01-10T~         588       6 "Just cause I'd like to s~
#>  2 danthevann        2021-01-10T~          23       0 "This free speech stuff i~
#>  3 Bbobby            2021-01-10T~         580       4 "Vigano \n#StopTheSteal #~
#>  4 GnarshipEnterpri~ 2021-01-10T~         312       5 "Did you hear about a new~
#>  5 shadowdances      2021-01-10T~         192       0 "#vaccines #vaccineinjury~
#>  6 Scritchbeat       2021-01-10T~        2000      10 "#VoterFraud #StopTheStea~
#>  7 Scritchbeat       2021-01-10T~        2100      12 "#VoterFraud #StopTheStea~
#>  8 Scritchbeat       2021-01-10T~        2100      13 "#VoterFraud #StopTheStea~
#>  9 Bushpilot182      2021-01-10T~         456       1 "Covid Vaccine Death\n\n#~
#> 10 Scritchbeat       2021-01-10T~        2500      12 "#VoterFraud #StopTheStea~
#> # ... with 40 more rows
```
…
