R Interface/Wrapper This is in Title Case • parleR
…
post_df1 %>% 
  dplyr::select(creator_username,body,impressions,upvotes,createdAt)
#> # A tibble: 83 x 5
#>    creator_username body                        impressions upvotes createdAt   
#>    <chr>            <chr>                             <dbl>   <dbl> <chr>       
#>  1 Grenell          "Start following people - ~      245000    6600 2021-01-09T~
#>  2 Grenell          "Start following people - ~      129000    1700 2021-01-09T~
#>  3 Grenell          "I’ll be on with @SeanHann~      299000    2300 2021-01-07T~
#>  4 Grenell          ""                               336000    2500 2021-01-03T~
#>  5 Grenell          ""                               925000    9200 2021-01-03T~
#>  6 Grenell          ""                               907000    9200 2021-01-03T~
#>  7 Grenell          "New year means opening up~      336000    2500 2021-01-01T~
#>  8 Grenell          ""                               148000    1500 2020-12-31T~
#>  9 Grenell          ""                               413000    3900 2020-12-26T~
#> 10 Grenell          "Today I’m thinking of tho~      413000    3900 2020-12-25T~
#> # ... with 73 more rows
…
Same for ‘EricTrump’ (no idea if account is legit):

post_df2 <- 
  parler_posts(user = "EricTrump",
               output_format = "data.frame",
               flatten_sep = " || ",
               parse_numbers = TRUE,
               verbose = TRUE)
#> [1] "Scraping profile information for 'EricTrump'. This might take a while."

post_df2 %>% 
  dplyr::select(creator_username,body,impressions,upvotes,createdAt)
#> # A tibble: 71 x 5
#>    creator_username body                        impressions upvotes createdAt   
#>    <chr>            <chr>                             <dbl>   <dbl> <chr>       
#>  1 EricTrump        ""                             3800000    96000 2021-01-09T~
#>  2 EricTrump        "Hello Friends!!! \U0001f1~    4100000.   68000 2021-01-09T~
#>  3 EricTrump        "Congratulations to @Trump~    2700000    15000 2020-12-18T~
#>  4 EricTrump        ""                             2200000    50000 2020-12-17T~
#>  5 EricTrump        "Just chilling with Grandp~    2500000    64000 2020-12-16T~
#>  6 EricTrump        "When you rearrange the sh~    2400000    32000 2020-12-12T~
#>  7 EricTrump        "The shooting sports were ~    2200000    31000 2020-12-09T~
#>  8 EricTrump        "Proud of @LaraleaTrump!!"     1800000    18000 2020-12-09T~
#>  9 EricTrump        ""                             2200000    30000 2020-12-08T~
#> 10 EricTrump        "Happy Saturday Friends!"      1400000    15000 2020-12-05T~
#> # ... with 61 more rows
…
hashtag_posts_df1 %>% 
  head(50) %>% 
  dplyr::select(creator_username,body,impressions,upvotes,createdAt)
#> # A tibble: 50 x 5
#>    creator_username body                        impressions upvotes createdAt   
#>    <chr>            <chr>                             <dbl>   <dbl> <chr>       
#>  1 Ivanka2020       "Hey Republicans,\n\nTrump~         351       4 2021-01-10T~
#>  2 Areebanaseem113  "#FightForTrump #TRUMP2020~         961       8 2021-01-10T~
#>  3 Slime83          "#SlimeMoldParler says FUC~         307       1 2021-01-10T~
#>  4 MartyLevine      "If “Amazon” is jumping in~          50       1 2021-01-10T~
#>  5 TrumpTrainTeam   "#stopthesteal #VoterFraud~         838      19 2021-01-10T~
#>  6 WarrenPeace310   "Pence is a traitor and al~         440       4 2021-01-10T~
#>  7 Hikkijorza       "Election Update: Trump Le~         716       4 2021-01-10T~
#>  8 Gayslime         "#SlimeMoldParler says FUC~         303       1 2021-01-10T~
#>  9 PATRIOTGANGSTER  "When you point your finge~         314       5 2021-01-10T~
#> 10 Doggoslime       "#SlimeMoldParler says FUC~         446       1 2021-01-10T~
#> # ... with 40 more rows
…
